%YAML 1.1
%TAG !u! tag:unity3d.com,2011:
--- !u!114 &11400000
MonoBehaviour:
  m_ObjectHideFlags: 0
  m_CorrespondingSourceObject: {fileID: 0}
  m_PrefabInstance: {fileID: 0}
  m_PrefabAsset: {fileID: 0}
  m_GameObject: {fileID: 0}
  m_Enabled: 1
  m_EditorHideFlags: 0
  m_Script: {fileID: 11500000, guid: 7043fccb8328bfe4d9a597c6e974001d, type: 3}
  m_Name: MyPok
  m_EditorClassIdentifier: 
  name: miPok
  sprite: {fileID: 21300000, guid: 8ba308577540f104287513b06c5820b3, type: 3}
  maxHP: 150
  HP: 150
  Level: 1
  XP: 2
  XPneeded: 4
  AtackSpeed: 1
  Defense: 0
